INDEX VERSION 1.129+/home/t/taylorc/cs111f2016/cs111f2016-taylorc/labs/lab9/.metadata/.plugins/org.eclipse.jdt.core
2982035129.index
2378519275.index
3214207201.index
46282419.index
2066489604.index
1913109094.index
120211678.index
2174481639.index
718764315.index
2233963263.index
2841451250.index
3888198363.index
527624335.index
2346627080.index
3774382786.index
1932949083.index
742522455.index
128082264.index
3850163322.index
3046647625.index
2630498905.index
3721837726.index
3885805113.index
2771403403.index
